20091112_RATP_SCD_0001;ITNR;NO
20091112_RATP_SCD_0002;OFTP;NO
20091112_RATP_SCD_0003;ETFC;NO
20091112_RATP_SCD_0004;ETFC;NO
20091112_RATP_SCD_0005;ETFC;NO
20091112_RATP_SCD_0006;ITNR;NO
20091112_RATP_SCD_0007;ETFC;NO
20091112_RATP_SCD_0008;ETFC;NO
20091112_RATP_SCD_0009;ETFC;NO
20091112_RATP_SCD_0010;OBJT;NO
20091112_RATP_SCD_0011;AAPL;NO
20091112_RATP_SCD_0012;TARF;NO
20091112_RATP_SCD_0013;ITNR;NO
20091112_RATP_SCD_0014;ETFC;NO
20091112_RATP_SCD_0015;ETFC;NO
20091112_RATP_SCD_0016;ETFC;NO
20091112_RATP_SCD_0017;ETFC;NO
20091112_RATP_SCD_0018;ITNR;NO
20091112_RATP_SCD_0019;NVGO;NO
20091112_RATP_SCD_0020;ITNR;NO
20091112_RATP_SCD_0021;NULL;NO
20091112_RATP_SCD_0023;NULL;NO
20091112_RATP_SCD_0024;NULL;NO
20091112_RATP_SCD_0025;NULL;NO
20091112_RATP_SCD_0031;ETFC;NO
20091112_RATP_SCD_0032;ETFC;NO
20091112_RATP_SCD_0033;ETFC;NO
20091112_RATP_SCD_0034;NVGO;NO
20091112_RATP_SCD_0035;ETFC;NO
20091112_RATP_SCD_0036;OBJT;NO
20091112_RATP_SCD_0037;AAPL;NO
20091112_RATP_SCD_0038;ETFC;NO
20091112_RATP_SCD_0039;ETFC;NO
20091112_RATP_SCD_0040;NVGO;NO
20091112_RATP_SCD_0041;ETFC;NO
20091112_RATP_SCD_0042;ETFC;NO
20091112_RATP_SCD_0043;ETFC;NO
20091112_RATP_SCD_0044;OFTP;NO
20091112_RATP_SCD_0045;ETFC;NO
20091112_RATP_SCD_0046;NVGO;NO
20091112_RATP_SCD_0047;ITNR;NO
20091112_RATP_SCD_0048;NVGO;NO
20091112_RATP_SCD_0049;OBJT;NO
20091112_RATP_SCD_0050;ETFC;NO
20091112_RATP_SCD_0055;ETFC;NO
20091112_RATP_SCD_0057;ETFC;NO
20091112_RATP_SCD_0058;ITNR;NO
20091112_RATP_SCD_0059;OBJT;NO
20091112_RATP_SCD_0060;PV;NO
20091112_RATP_SCD_0061;OBJT;NO
20091112_RATP_SCD_0062;ETFC;NO
20091112_RATP_SCD_0063;ETFC;NO
20091112_RATP_SCD_0064;ETFC;NO
20091112_RATP_SCD_0065;ETFC;NO
20091112_RATP_SCD_0066;HORR;NO
20091112_RATP_SCD_0067;TARF;NO
20091112_RATP_SCD_0068;ETFC;NO
20091112_RATP_SCD_0069;ITNR;NO
20091112_RATP_SCD_0070;HORR;NO
20091112_RATP_SCD_0071;ITNR;NO
20091112_RATP_SCD_0072;PV;NO
20091112_RATP_SCD_0073;ETFC;NO
20091112_RATP_SCD_0074;ETFC;NO
20091112_RATP_SCD_0075;ETFC;NO
20091112_RATP_SCD_0076;ITNR;NO
20091112_RATP_SCD_0077;ETFC;NO
20091112_RATP_SCD_0078;ITNR;NO
20091112_RATP_SCD_0079;ETFC;NO
20091112_RATP_SCD_0080;ETFC;NO
20091112_RATP_SCD_0081;NVGO;NO
20091112_RATP_SCD_0083;ETFC;NO
20091112_RATP_SCD_0084;ITNR;NO
20091112_RATP_SCD_0085;ITNR;NO
20091112_RATP_SCD_0086;ETFC;NO
20091112_RATP_SCD_0087;ITNR;NO
20091112_RATP_SCD_0088;ITNR;NO
20091112_RATP_SCD_0089;NVGO;NO
20091112_RATP_SCD_0090;ITNR;NO
20091112_RATP_SCD_0095;ITNR;NO
20091112_RATP_SCD_0097;HORR;NO
20091112_RATP_SCD_0099;ETFC;NO
20091112_RATP_SCD_0100;ETFC;NO
20091112_RATP_SCD_0102;ETFC;NO
20091112_RATP_SCD_0103;ITNR;NO
20091112_RATP_SCD_0104;OFTP;NO
20091112_RATP_SCD_0110;NVGO;NO
20091112_RATP_SCD_0115;ITNR;NO
20091112_RATP_SCD_0116;OBJT;NO
20091112_RATP_SCD_0117;NVGO;NO
20091112_RATP_SCD_0118;NVGO;NO
20091112_RATP_SCD_0119;ETFC;NO
20091112_RATP_SCD_0120;OBJT;NO
20091112_RATP_SCD_0121;ITNR;NO
20091112_RATP_SCD_0122;ITNR;NO
20091112_RATP_SCD_0123;ETFC;NO
20091112_RATP_SCD_0124;HORR;NO
20091112_RATP_SCD_0125;ITNR;NO
20091112_RATP_SCD_0126;ITNR;NO
20091112_RATP_SCD_0127;ITNR;NO
20091112_RATP_SCD_0129;TARF;NO
20091112_RATP_SCD_0130;VGC;NO
20091112_RATP_SCD_0131;OBJT;NO
20091112_RATP_SCD_0132;OBJT;NO
20091112_RATP_SCD_0133;NVGO;NO
20091112_RATP_SCD_0134;ITNR;NO
20091112_RATP_SCD_0135;PV;NO
20091112_RATP_SCD_0136;ETFC;NO
20091112_RATP_SCD_0138;ETFC;NO
20091112_RATP_SCD_0139;ITNR;NO
20091112_RATP_SCD_0140;PV;NO
20091112_RATP_SCD_0141;OBJT;NO
20091112_RATP_SCD_0142;ITNR;NO
20091112_RATP_SCD_0143;ETFC;NO
20091112_RATP_SCD_0144;ETFC;NO
20091112_RATP_SCD_0145;ETFC;NO
20091112_RATP_SCD_0146;ETFC;NO
20091112_RATP_SCD_0147;ETFC;NO
20091112_RATP_SCD_0148;RETT;NO
20091112_RATP_SCD_0149;HORR;NO
20091112_RATP_SCD_0150;ETFC;NO
20091112_RATP_SCD_0151;ETFC;NO
20091112_RATP_SCD_0152;AAPL;NO
20091112_RATP_SCD_0153;ACCS;NO
20091112_RATP_SCD_0154;ETFC;NO
20091112_RATP_SCD_0155;ETFC;NO
20091112_RATP_SCD_0156;RGLM;NO
20091112_RATP_SCD_0157;SVDO;NO
20091112_RATP_SCD_0158;ETFC;NO
20091112_RATP_SCD_0159;ITNR;NO
20091112_RATP_SCD_0160;ETFC;NO
20091112_RATP_SCD_0161;HORR;NO
20091112_RATP_SCD_0162;VGC;TARF
20091112_RATP_SCD_0163;NVGO;NO
20091112_RATP_SCD_0164;ETFC;NO
20091112_RATP_SCD_0165;OBJT;NO
20091112_RATP_SCD_0166;OBJT;NO
20091112_RATP_SCD_0167;HORR;NO
20091112_RATP_SCD_0168;ITNR;NO
20091112_RATP_SCD_0169;OBJT;NO
20091112_RATP_SCD_0170;PV;NO
20091112_RATP_SCD_0171;HORR;NO
20091112_RATP_SCD_0172;ETFC;NO
20091112_RATP_SCD_0173;ITNR;NO
20091112_RATP_SCD_0174;VGC;NO
20091112_RATP_SCD_0175;ITNR;NO
20091112_RATP_SCD_0176;VGC;NO
20091112_RATP_SCD_0177;OBJT;NO
20091112_RATP_SCD_0178;PV;NO
20091112_RATP_SCD_0179;TARF;NO
20091112_RATP_SCD_0180;JSTF;NO
20091112_RATP_SCD_0200;ETFC;NO
20091112_RATP_SCD_0201;PV;NO
20091112_RATP_SCD_0202;ETFC;NO
20091112_RATP_SCD_0203;OFTP;NO
20091112_RATP_SCD_0204;NVGO;NO
20091112_RATP_SCD_0205;OBJT;NO
20091112_RATP_SCD_0206;ITNR;NO
20091112_RATP_SCD_0207;HORR;NO
20091112_RATP_SCD_0208;TARF;NO
20091112_RATP_SCD_0209;PV;NO
20091112_RATP_SCD_0210;OBJT;NO
20091112_RATP_SCD_0211;OBJT;NO
20091112_RATP_SCD_0212;ETFC;NO
20091112_RATP_SCD_0213;NULL;NO
20091112_RATP_SCD_0214;VGC;NO
20091112_RATP_SCD_0215;PV;NO
20091112_RATP_SCD_0216;ETFC;NO
20091112_RATP_SCD_0217;OBJT;NO
20091112_RATP_SCD_0218;OFTP;NO
20091112_RATP_SCD_0219;VGC;NO
20091112_RATP_SCD_0220;SVDO;NO
20091112_RATP_SCD_0221;OFTP;NO
20091112_RATP_SCD_0222;ITNR;NO
20091112_RATP_SCD_0223;PV;NO
20091112_RATP_SCD_0224;NVGO;NO
20091112_RATP_SCD_0225;ETFC;NO
20091112_RATP_SCD_0226;ITNR;NO
20091112_RATP_SCD_0227;ITNR;NO
20091112_RATP_SCD_0228;ITNR;NO
20091112_RATP_SCD_0229;AAPL;NO
20091112_RATP_SCD_0230;HORR;NO
20091112_RATP_SCD_0231;TARF;NO
20091112_RATP_SCD_0232;NVGO;NO
20091112_RATP_SCD_0233;ITNR;NO
20091112_RATP_SCD_0234;NULL;NO
20091112_RATP_SCD_0235;ETFC;NO
20091112_RATP_SCD_0236;NVGO;NO
20091112_RATP_SCD_0237;ITNR;NO
20091112_RATP_SCD_0238;OBJT;NO
20091112_RATP_SCD_0239;ITNR;NO
20091112_RATP_SCD_0240;OBJT;NO
20091112_RATP_SCD_0241;ETFC;NO
20091112_RATP_SCD_0242;ETFC;NO
20091112_RATP_SCD_0243;OBJT;NO
20091112_RATP_SCD_0244;OBJT;NO
20091112_RATP_SCD_0245;NVGO;NO
20091112_RATP_SCD_0246;ETFC;NO
20091112_RATP_SCD_0248;OBJT;NO
20091112_RATP_SCD_0251;OBJT;NO
20091112_RATP_SCD_0252;ITNR;NO
20091112_RATP_SCD_0253;ETFC;NO
20091112_RATP_SCD_0254;OBJT;NO
20091112_RATP_SCD_0255;TARF;NO
20091112_RATP_SCD_0256;ITNR;NO
20091112_RATP_SCD_0257;HORR;OFTP
20091112_RATP_SCD_0258;ITNR;NO
20091112_RATP_SCD_0259;ITNR;NO
20091112_RATP_SCD_0260;OBJT;NO
20091112_RATP_SCD_0261;HORR;NO
20091112_RATP_SCD_0262;ITNR;NO
20091112_RATP_SCD_0263;NVGO;NO
20091112_RATP_SCD_0264;VGC;NO
20091112_RATP_SCD_0265;ACDT;NO
20091112_RATP_SCD_0266;CPAG;NO
20091112_RATP_SCD_0267;ITNR;NO
20091112_RATP_SCD_0268;NVGO;NO
20091112_RATP_SCD_0269;ETFC;NO
20091112_RATP_SCD_0270;AAPL;NO
20091112_RATP_SCD_0271;NVGO;NO
20091112_RATP_SCD_0272;ITNR;NO
20091112_RATP_SCD_0274;ITNR;NO
20091112_RATP_SCD_0275;ETFC;NO
20091112_RATP_SCD_0276;PV;NO
20091112_RATP_SCD_0277;OBJT;NO
20091112_RATP_SCD_0278;NVGO;NO
20091112_RATP_SCD_0279;OBJT;NO
20091112_RATP_SCD_0280;NVGO;NO
20091112_RATP_SCD_0281;PV;NO
20091112_RATP_SCD_0282;ITNR;NO
20091112_RATP_SCD_0283;NVGO;NO
20091112_RATP_SCD_0284;PV;NO
20091112_RATP_SCD_0285;ITNR;NO
20091112_RATP_SCD_0301;VGC;NO
20091112_RATP_SCD_0304;AAPL;NO
20091112_RATP_SCD_0305;PV;NO
20091112_RATP_SCD_0306;ITNR;NO
20091112_RATP_SCD_0307;OBJT;NO
20091112_RATP_SCD_0308;PV;NO
20091112_RATP_SCD_0310;HORR;NO
20091112_RATP_SCD_0311;OBJT;NO
20091112_RATP_SCD_0312;PV;NO
20091112_RATP_SCD_0313;OBJT;NO
20091112_RATP_SCD_0314;OBJT;NO
20091112_RATP_SCD_0316;ETFC;NO
20091112_RATP_SCD_0317;OBJT;NO
20091112_RATP_SCD_0318;NVGO;NO
20091112_RATP_SCD_0319;ETFC;NO
20091112_RATP_SCD_0320;ETFC;NO
20091112_RATP_SCD_0322;RETT;NO
20091112_RATP_SCD_0323;ETFC;NO
20091112_RATP_SCD_0324;TARF;NO
20091112_RATP_SCD_0325;NVGO;NO
20091112_RATP_SCD_0327;OFTP;NO
20091112_RATP_SCD_0329;OBJT;NO
20091112_RATP_SCD_0330;NVGO;NO
20091112_RATP_SCD_0331;CPAG;NO
20091112_RATP_SCD_0332;PV;NO
20091112_RATP_SCD_0333;OBJT;NO
20091112_RATP_SCD_0334;TARF;NO
20091112_RATP_SCD_0335;NVGO;NO
20091112_RATP_SCD_0336;HORR;NO
20091112_RATP_SCD_0337;NVGO;NO
20091112_RATP_SCD_0338;VGC;NO
20091112_RATP_SCD_0339;RETT;NO
20091112_RATP_SCD_0340;OBJT;NO
20091112_RATP_SCD_0341;OBJT;NO
20091112_RATP_SCD_0342;AAPL;NO
20091112_RATP_SCD_0343;RETT;NVGO
20091112_RATP_SCD_0344;ITNR;NO
20091112_RATP_SCD_0345;ETFC;NO
20091112_RATP_SCD_0346;ITNR;NO
20091112_RATP_SCD_0347;OBJT;NO
20091112_RATP_SCD_0348;OBJT;NO
20091112_RATP_SCD_0349;ITNR;NO
20091112_RATP_SCD_0350;ITNR;NO
20091112_RATP_SCD_0351;ETFC;NO
20091112_RATP_SCD_0352;ITNR;NO
20091112_RATP_SCD_0353;OBJT;NO
20091112_RATP_SCD_0354;OBJT;NO
20091112_RATP_SCD_0355;RGLM;NO
20091112_RATP_SCD_0356;TARF;NO
20091112_RATP_SCD_0357;ETFC;NO
20091112_RATP_SCD_0358;ETFC;NO
20091112_RATP_SCD_0359;ETFC;NO
20091112_RATP_SCD_0360;TARF;NVGO
20091112_RATP_SCD_0366;PV;NO
20091112_RATP_SCD_0367;ETFC;NO
20091112_RATP_SCD_0368;OBJT;NO
20091112_RATP_SCD_0369;HORR;NO
20091112_RATP_SCD_0370;PV;NO
20091112_RATP_SCD_0371;AAPL;NO
20091112_RATP_SCD_0372;OBJT;NO
20091112_RATP_SCD_0373;ETFC;NO
20091112_RATP_SCD_0374;VGC;NO
20091112_RATP_SCD_0375;HORR;NO
20091112_RATP_SCD_0376;VGC;NO
20091112_RATP_SCD_0377;NULL;NO
20091112_RATP_SCD_0378;OBJT;NO
20091112_RATP_SCD_0379;OBJT;NO
20091112_RATP_SCD_0380;OBJT;NO
20091112_RATP_SCD_0381;VGC;NO
20091112_RATP_SCD_0382;VGC;NO
20091112_RATP_SCD_0383;VGC;NO
20091112_RATP_SCD_0384;ITNR;NO
20091112_RATP_SCD_0385;ETFC;NO
20091112_RATP_SCD_0386;ITNR;NO
20091112_RATP_SCD_0387;ITNR;NO
20091112_RATP_SCD_0388;OBJT;NO
20091112_RATP_SCD_0389;ETFC;NO
20091112_RATP_SCD_0390;NVGO;NO
20091112_RATP_SCD_0391;PV;NO
20091112_RATP_SCD_0392;VGC;NO
20091112_RATP_SCD_0393;RETT;NO
20091112_RATP_SCD_0394;OBJT;NO
20091112_RATP_SCD_0395;TARF;NO
20091112_RATP_SCD_0396;ETFC;NO
20091112_RATP_SCD_0397;OBJT;NO
20091112_RATP_SCD_0398;NVGO;NO
20091112_RATP_SCD_0399;ITNR;NO
20091112_RATP_SCD_0400;VGC;NO
20091112_RATP_SCD_0401;DDOC;NO
20091112_RATP_SCD_0402;ITNR;NO
20091112_RATP_SCD_0403;ETFC;NO
20091112_RATP_SCD_0404;ITNR;HORR
20091112_RATP_SCD_0405;NVGO;NO
20091112_RATP_SCD_0406;HORR;NO
20091112_RATP_SCD_0407;VGC;NO
20091112_RATP_SCD_0408;ETFC;NO
20091112_RATP_SCD_0409;AAPL;NO
20091112_RATP_SCD_0410;OBJT;NO
20091112_RATP_SCD_0411;NVGO;NO
20091112_RATP_SCD_0412;OBJT;NO
20091112_RATP_SCD_0413;ETFC;NO
20091112_RATP_SCD_0414;NVGO;NO
20091112_RATP_SCD_0415;ITNR;NO
20091112_RATP_SCD_0416;OBJT;NO
20091112_RATP_SCD_0417;ETFC;NO
20091112_RATP_SCD_0418;OBJT;NO
20091112_RATP_SCD_0419;ITNR;NO
20091112_RATP_SCD_0420;TARF;VGC
20091112_RATP_SCD_0421;TARF;NO
20091112_RATP_SCD_0422;VGC;NO
20091112_RATP_SCD_0423;ETFC;NO
20091112_RATP_SCD_0424;NVGO;NO
20091112_RATP_SCD_0425;OFTP;NO
20091112_RATP_SCD_0426;PV;NO
20091112_RATP_SCD_0427;HORR;NO
20091112_RATP_SCD_0428;ETFC;NO
20091112_RATP_SCD_0429;NVGO;NO
20091112_RATP_SCD_0430;OBJT;NO
20091112_RATP_SCD_0431;NVGO;NO
20091112_RATP_SCD_0432;OBJT;NO
20091112_RATP_SCD_0433;ETFC;NO
20091112_RATP_SCD_0434;AAPL;NO
20091112_RATP_SCD_0435;ITNR;NO
20091112_RATP_SCD_0436;OBJT;NO
20091112_RATP_SCD_0437;OBJT;NO
20091112_RATP_SCD_0438;VGC;NO
20091112_RATP_SCD_0439;TARF;NO
20091112_RATP_SCD_0440;PV;NO
20091112_RATP_SCD_0441;HORR;NO
20091112_RATP_SCD_0442;AAPL;NO
20091112_RATP_SCD_0443;OBJT;NO
20091112_RATP_SCD_0444;ETFC;NO
20091112_RATP_SCD_0445;RETT;NO
20091112_RATP_SCD_0446;NVGO;NO
20091112_RATP_SCD_0447;ITNR;NO
20091112_RATP_SCD_0449;ITNR;NO
20091112_RATP_SCD_0451;OBJT;NO
20091112_RATP_SCD_0452;ITNR;NO
20091112_RATP_SCD_0453;OBJT;NO
20091112_RATP_SCD_0454;RETT;NO
20091112_RATP_SCD_0455;ITNR;NO
20091112_RATP_SCD_0456;AAPL;NO
20091112_RATP_SCD_0457;VGC;NO
20091112_RATP_SCD_0458;ITNR;NO
20091112_RATP_SCD_0459;ETFC;NO
20091112_RATP_SCD_0460;ETFC;NO
20091112_RATP_SCD_0461;ITNR;NO
20091112_RATP_SCD_0462;ETFC;NO
20091112_RATP_SCD_0463;ETFC;NO
20091112_RATP_SCD_0464;ETFC;NO
20091112_RATP_SCD_0465;VGC;NO
20091112_RATP_SCD_0466;ETFC;NO
20091112_RATP_SCD_0467;ITNR;NO
20091112_RATP_SCD_0468;ETFC;NO
20091112_RATP_SCD_0469;ETFC;NO
20091112_RATP_SCD_0470;OBJT;NO
20091112_RATP_SCD_0471;ITNR;NO
20091112_RATP_SCD_0472;OFTP;NO
20091112_RATP_SCD_0473;ETFC;NO
20091112_RATP_SCD_0474;NVGO;NO
20091112_RATP_SCD_0475;ITNR;NO
20091112_RATP_SCD_0476;TARF;NO
20091112_RATP_SCD_0477;OFTP;NO
20091112_RATP_SCD_0478;ITNR;NO
20091112_RATP_SCD_0479;HORR;NO
20091112_RATP_SCD_0480;AAPL;NO
20091112_RATP_SCD_0481;OBJT;NO
20091112_RATP_SCD_0482;ITNR;NO
20091112_RATP_SCD_0483;HORR;NO
20091112_RATP_SCD_0484;ETFC;NO
20091112_RATP_SCD_0485;ETFC;NO
20091112_RATP_SCD_0486;AAPL;NO
20091112_RATP_SCD_0487;ETFC;NO
20091112_RATP_SCD_0488;RETT;NO
20091112_RATP_SCD_0489;OBJT;NO
20091112_RATP_SCD_0490;OBJT;NO
20091112_RATP_SCD_0491;ETFC;NO
20091112_RATP_SCD_0492;AAPL;NO
20091112_RATP_SCD_0493;NVGO;NO
20091112_RATP_SCD_0494;VGC;NO
20091112_RATP_SCD_0495;OBJT;NO
20091112_RATP_SCD_0496;VGC;NO
20091112_RATP_SCD_0497;ETFC;ITNR
20091112_RATP_SCD_0498;ITNR;NO
20091112_RATP_SCD_0499;ETFC;NO
20091112_RATP_SCD_0500;NVGO;NO
20091112_RATP_SCD_0501;ITNR;NO
20091112_RATP_SCD_0502;HORR;NO
20091112_RATP_SCD_0503;ITNR;NO
20091112_RATP_SCD_0504;ITNR;NO
20091112_RATP_SCD_0505;ITNR;NO
20091112_RATP_SCD_0506;HORR;NO
20091112_RATP_SCD_0507;ETFC;NO
20091112_RATP_SCD_0508;HORR;NO
20091112_RATP_SCD_0509;JSTF;NO
20091112_RATP_SCD_0510;ETFC;NO
20091112_RATP_SCD_0511;PV;NO
20091112_RATP_SCD_0512;NVGO;NO
20091112_RATP_SCD_0513;ETFC;NO
20091112_RATP_SCD_0514;NVGO;NO
20091112_RATP_SCD_0515;TARF;NO
20091112_RATP_SCD_0516;RGLM;NO
20091112_RATP_SCD_0517;ITNR;NO
20091112_RATP_SCD_0518;TARF;NO
20091112_RATP_SCD_0519;AAPL;NO
20091112_RATP_SCD_0520;ETFC;NO
20091112_RATP_SCD_0521;ETFC;NO
20091112_RATP_SCD_0522;ETFC;NO
20091112_RATP_SCD_0523;PV;NO
20091112_RATP_SCD_0524;ITNR;NO
20091112_RATP_SCD_0525;ETFC;NO
20091112_RATP_SCD_0526;OBJT;NO
20091112_RATP_SCD_0527;ITNR;NO
20091112_RATP_SCD_0528;PV;NO
20091112_RATP_SCD_0529;NVGO;NO
20091112_RATP_SCD_0530;ETFC;NO
20091112_RATP_SCD_0531;ETFC;NO
20091112_RATP_SCD_0532;ETFC;NO
20091112_RATP_SCD_0533;NVGO;NO
20091112_RATP_SCD_0534;HORR;NO
20091112_RATP_SCD_0535;ITNR;NO
20091112_RATP_SCD_0536;ITNR;NO
20091112_RATP_SCD_0538;NVGO;NO
20091112_RATP_SCD_0539;TARF;NO
20091112_RATP_SCD_0540;RGLM;NO
20091112_RATP_SCD_0542;PV;NO
20091112_RATP_SCD_0543;OBJT;NO
20091112_RATP_SCD_0544;ITNR;NO
20091112_RATP_SCD_0545;OBJT;NO
20091112_RATP_SCD_0546;ITNR;NO
20091112_RATP_SCD_0547;ITNR;NO
20091112_RATP_SCD_0548;TARF;AAPL
20091112_RATP_SCD_0549;NVGO;NO
20091112_RATP_SCD_0550;NVGO;NO
20091112_RATP_SCD_0551;ETFC;NO
20091112_RATP_SCD_0552;ITNR;NO
20091112_RATP_SCD_0553;NVGO;NO
20091112_RATP_SCD_0554;OFTP;NO
20091112_RATP_SCD_0555;ETFC;NO
20091112_RATP_SCD_0556;NVGO;NO
20091112_RATP_SCD_0557;NVGO;NO
20091112_RATP_SCD_0558;OFTP;NO
20091112_RATP_SCD_0559;ETFC;NO
20091112_RATP_SCD_0560;NVGO;NO
20091112_RATP_SCD_0561;ITNR;NO
20091112_RATP_SCD_0562;OBJT;NO
20091112_RATP_SCD_0563;ITNR;NO
20091112_RATP_SCD_0564;ITNR;NO
20091112_RATP_SCD_0565;HORR;NO
20091112_RATP_SCD_0566;AAPL;NO
20091112_RATP_SCD_0567;NVGO;NO
20091112_RATP_SCD_0568;ITNR;NO
20091112_RATP_SCD_0569;ETFC;NO
20091112_RATP_SCD_0570;ETFC;NO
20091112_RATP_SCD_0571;ITNR;NO
20091112_RATP_SCD_0572;ITNR;NO
20091112_RATP_SCD_0573;NVGO;NO
20091112_RATP_SCD_0574;AAPL;NO
20091112_RATP_SCD_0575;OBJT;NO
20091112_RATP_SCD_0576;ETFC;NO
20091112_RATP_SCD_0577;TARF;NO
20091112_RATP_SCD_0578;PV;NO
20091112_RATP_SCD_0579;NVGO;NO
20091112_RATP_SCD_0580;RETT;NO
20091112_RATP_SCD_0581;OBJT;NO
20091112_RATP_SCD_0582;CPAG;NO
20091112_RATP_SCD_0583;HORR;NO
20091112_RATP_SCD_0584;VGC;NO
20091112_RATP_SCD_0585;OBJT;NO
20091112_RATP_SCD_0586;NVGO;NO
20091112_RATP_SCD_0587;ITNR;NO
20091112_RATP_SCD_0588;OBJT;NO
20091112_RATP_SCD_0589;AAPL;NO
20091112_RATP_SCD_0590;OBJT;NO
20091112_RATP_SCD_0591;ETFC;NO
20091112_RATP_SCD_0592;OBJT;NO
20091112_RATP_SCD_0593;OBJT;NO
20091112_RATP_SCD_0594;HORR;NO
20091112_RATP_SCD_0595;ITNR;NO
20091112_RATP_SCD_0596;ETFC;NO
20091112_RATP_SCD_0598;NVGO;NO
20091112_RATP_SCD_0599;ETFC;NO
20091112_RATP_SCD_0600;OFTP;NO
20091112_RATP_SCD_0601;HORR;NO
20091112_RATP_SCD_0602;PV;NO
20091112_RATP_SCD_0603;ITNR;NO
20091112_RATP_SCD_0604;ITNR;NO
20091112_RATP_SCD_0605;ITNR;NO
20091112_RATP_SCD_0606;PV;NO
20091112_RATP_SCD_0607;RETT;NO
20091112_RATP_SCD_0608;NVGO;NO
20091112_RATP_SCD_0609;NVGO;NO
20091112_RATP_SCD_0610;PV;NO
20091112_RATP_SCD_0614;OBJT;NO
20091112_RATP_SCD_0624;NVGO;NO
20091112_RATP_SCD_0651;RETT;NO
20091112_RATP_SCD_0652;ETFC;NO
20091112_RATP_SCD_0653;ITNR;NO
20091112_RATP_SCD_0654;ETFC;NO
20091112_RATP_SCD_0655;VGC;NO
20091112_RATP_SCD_0666;ETFC;NO
20091112_RATP_SCD_0667;ETFC;NO
20091112_RATP_SCD_0668;HORR;NO
20091112_RATP_SCD_0669;NVGO;NO
20091112_RATP_SCD_0670;OBJT;NO
20091112_RATP_SCD_0671;OBJT;NO
20091112_RATP_SCD_0672;ITNR;NO
20091112_RATP_SCD_0673;ITNR;NO
20091112_RATP_SCD_0674;ITNR;NO
20091112_RATP_SCD_0675;OBJT;NO
20091112_RATP_SCD_0676;NVGO;NO
20091112_RATP_SCD_0677;NVGO;NO
20091112_RATP_SCD_0678;VGC;NO
20091112_RATP_SCD_0679;OBJT;NO
20091112_RATP_SCD_0680;TARF;NO
20091112_RATP_SCD_0681;NULL;NO
20091112_RATP_SCD_0682;NVGO;NO
20091112_RATP_SCD_0683;ITNR;NO
20091112_RATP_SCD_0684;TARF;NO
20091112_RATP_SCD_0685;HORR;NO
20091112_RATP_SCD_0686;OBJT;NO
20091112_RATP_SCD_0687;NVGO;NO
20091112_RATP_SCD_0688;OBJT;NO
20091112_RATP_SCD_0689;NVGO;NO
20091112_RATP_SCD_0690;ITNR;NO
20091112_RATP_SCD_0691;OBJT;NO
20091112_RATP_SCD_0692;ETFC;NO
20091112_RATP_SCD_0693;NVGO;NO
20091112_RATP_SCD_0694;NVGO;NO
20091112_RATP_SCD_0695;TARF;NO
20091112_RATP_SCD_0696;AAPL;NO
20091112_RATP_SCD_0697;NULL;NO
20091112_RATP_SCD_0698;AAPL;NO
20091112_RATP_SCD_0699;HORR;NO
20091112_RATP_SCD_0700;NVGO;NO
20091112_RATP_SCD_0701;NVGO;NO
20091112_RATP_SCD_0702;ETFC;NO
20091112_RATP_SCD_0703;ITNR;NO
20091112_RATP_SCD_0704;ETFC;NO
20091112_RATP_SCD_0705;AAPL;NO
20091112_RATP_SCD_0706;OBJT;NO
20091112_RATP_SCD_0707;PV;NO
20091112_RATP_SCD_0708;NULL;NO
20091112_RATP_SCD_0709;VGC;NO
20091112_RATP_SCD_0710;ITNR;NO
20091112_RATP_SCD_0711;ETFC;NO
20091112_RATP_SCD_0712;NVGO;NO
20091112_RATP_SCD_0713;ETFC;NO
20091112_RATP_SCD_0714;NVGO;NO
20091112_RATP_SCD_0715;ETFC;NO
20091112_RATP_SCD_0716;ITNR;NO
20091112_RATP_SCD_0717;NULL;NO
20091112_RATP_SCD_0718;TARF;NO
20091112_RATP_SCD_0719;ETFC;NO
20091112_RATP_SCD_0720;ITNR;NO
20091112_RATP_SCD_0724;NULL;NO
20091112_RATP_SCD_0725;NULL;NO
20091112_RATP_SCD_0726;ETFC;NO
20091112_RATP_SCD_0727;ETFC;NO
20091112_RATP_SCD_0728;VGC;NO
20091112_RATP_SCD_0729;HORR;NO
20091112_RATP_SCD_0731;OBJT;NO
20091112_RATP_SCD_0732;NVGO;NO
20091112_RATP_SCD_0733;OBJT;NO
20091112_RATP_SCD_0734;TARF;NO
20091112_RATP_SCD_0735;AAPL;NO
20091112_RATP_SCD_0736;NO;
20091112_RATP_SCD_0737;AAPL;NO
20091112_RATP_SCD_0738;ITNR;NO
20091112_RATP_SCD_0739;CPAG;NO
20091112_RATP_SCD_0740;OBJT;NO
20091112_RATP_SCD_0741;RETT;NO
20091112_RATP_SCD_0742;ETFC;NO
20091112_RATP_SCD_0743;NVGO;NO
20091112_RATP_SCD_0744;NVGO;NO
20091112_RATP_SCD_0745;HORR;NO
20091112_RATP_SCD_0746;ETFC;NO
20091112_RATP_SCD_0747;NVGO;NO
20091112_RATP_SCD_0748;PV;NO
20091112_RATP_SCD_0749;NVGO;NO
20091112_RATP_SCD_0750;ETFC;NO
20091112_RATP_SCD_0751;ITNR;NO
20091112_RATP_SCD_0752;VGC;NO
20091112_RATP_SCD_0753;VGC;NO
20091112_RATP_SCD_0754;NVGO;NO
20091112_RATP_SCD_0755;OBJT;NO
20091112_RATP_SCD_0756;ETFC;NO
20091112_RATP_SCD_0757;ETFC;NO
20091112_RATP_SCD_0758;VGC;NO
20091112_RATP_SCD_0759;HORR;NO
20091112_RATP_SCD_0760;ETFC;NO
20091112_RATP_SCD_0761;NVGO;NO
20091112_RATP_SCD_0762;ETFC;NO
20091112_RATP_SCD_0763;ETFC;NO
20091112_RATP_SCD_0764;ETFC;NO
20091112_RATP_SCD_0765;PV;NO
20091112_RATP_SCD_0766;ETFC;NO
20091112_RATP_SCD_0767;AAPL;NO
20091112_RATP_SCD_0768;AAPL;NO
20091112_RATP_SCD_0769;AAPL;NO
20091112_RATP_SCD_0770;ETFC;NO
20091112_RATP_SCD_0771;ITNR;NO
20091112_RATP_SCD_0772;ETFC;NO
20091112_RATP_SCD_0773;PV;NO
20091112_RATP_SCD_0774;ETFC;NO
20091112_RATP_SCD_0775;AAPL;NO
20091112_RATP_SCD_0776;ETFC;NO
20091112_RATP_SCD_0777;ETFC;NO
20091112_RATP_SCD_0778;AAPL;NO
20091112_RATP_SCD_0779;NVGO;NO
20091112_RATP_SCD_0780;ETFC;NO
20091112_RATP_SCD_0781;ETFC;NO
20091112_RATP_SCD_0782;ITNR;NO
20091112_RATP_SCD_0783;AAPL;NO
20091112_RATP_SCD_0784;HORR;NO
20091112_RATP_SCD_0785;ITNR;NO
20091112_RATP_SCD_0786;ITNR;NO
20091112_RATP_SCD_0787;AAPL;NO
20091112_RATP_SCD_0788;NVGO;NO
20091112_RATP_SCD_0789;ETFC;NO
20091112_RATP_SCD_0790;VGC;TARF
20091112_RATP_SCD_0791;ITNR;NO
20091112_RATP_SCD_0792;ITNR;NO
20091112_RATP_SCD_0793;TARF;NO
20091112_RATP_SCD_0794;ITNR;NO
20091112_RATP_SCD_0795;NVGO;NO
20091112_RATP_SCD_0796;TARF;AAPL
20091112_RATP_SCD_0798;OBJT;NO
20091112_RATP_SCD_0799;ITNR;NO
20091112_RATP_SCD_0800;RETT;NO
20091112_RATP_SCD_0801;NVGO;NO
20091112_RATP_SCD_0802;ETFC;NO
20091112_RATP_SCD_0803;VGC;NO
20091112_RATP_SCD_0804;HORR;NO
20091112_RATP_SCD_0805;NVGO;NO
20091112_RATP_SCD_0806;ETFC;NO
20091112_RATP_SCD_0807;ITNR;NO
20091112_RATP_SCD_0808;TARF;NO
20091112_RATP_SCD_0809;ETFC;NO
20091112_RATP_SCD_0810;ETFC;NO
20091112_RATP_SCD_0811;OBJT;NO
20091112_RATP_SCD_0812;ETFC;NO
20091112_RATP_SCD_0813;OBJT;NO
20091112_RATP_SCD_0814;ETFC;NO
20091112_RATP_SCD_0815;VGC;NO
20091112_RATP_SCD_0816;NVGO;NO
20091112_RATP_SCD_0817;PV;NO
20091112_RATP_SCD_0818;ITNR;NO
20091112_RATP_SCD_0820;ETFC;NO
20091112_RATP_SCD_0821;ETFC;NO
20091112_RATP_SCD_0822;NVGO;NO
20091112_RATP_SCD_0823;HORR;NO
20091112_RATP_SCD_0824;ITNR;NO
20091112_RATP_SCD_0825;OBJT;NO
20091112_RATP_SCD_0826;HORR;AAPL
20091112_RATP_SCD_0827;AAPL;NO
20091112_RATP_SCD_0828;ETFC;NO
20091112_RATP_SCD_0829;ITNR;NO
20091112_RATP_SCD_0830;OBJT;NO
20091112_RATP_SCD_0831;OFTP;NO
20091112_RATP_SCD_0832;ITNR;NO
20091112_RATP_SCD_0833;OBJT;NO
20091112_RATP_SCD_0835;AAPL;NO
20091112_RATP_SCD_0836;ETFC;NO
20091112_RATP_SCD_0838;ETFC;NO
20091112_RATP_SCD_0840;ETFC;NO
20091112_RATP_SCD_0841;TARF;NO
20091112_RATP_SCD_0842;NVGO;NO
20091112_RATP_SCD_0844;PV;NO
20091112_RATP_SCD_0845;ETFC;NO
20091112_RATP_SCD_0846;ETFC;NO
20091112_RATP_SCD_0848;NO;
20091112_RATP_SCD_0849;ETFC;NO
20091112_RATP_SCD_0850;VGC;NO
20091112_RATP_SCD_0851;TARF;NO
20091112_RATP_SCD_0852;NVGO;NO
20091112_RATP_SCD_0853;NVGO;NO
20091112_RATP_SCD_0854;ITNR;NO
20091112_RATP_SCD_0855;ITNR;NO
20091112_RATP_SCD_0856;TARF;NO
20091112_RATP_SCD_0858;NVGO;NO
20091112_RATP_SCD_0859;VGC;NO
20091112_RATP_SCD_0860;AAPL;NO
20091112_RATP_SCD_0862;ETFC;NO
20091112_RATP_SCD_0863;VGC;NO
20091112_RATP_SCD_0865;ITNR;NO
20091112_RATP_SCD_0866;TARF;NO
20091112_RATP_SCD_0867;ITNR;NO
20091112_RATP_SCD_0868;ITNR;NO
20091112_RATP_SCD_0869;ETFC;NO
20091112_RATP_SCD_0870;VGC;NO
20091112_RATP_SCD_0871;ITNR;NO
20091112_RATP_SCD_0876;ETFC;NO
20091112_RATP_SCD_0877;AAPL;NO
20091112_RATP_SCD_0878;PV;NO
20091112_RATP_SCD_0879;NVGO;NO
20091112_RATP_SCD_0880;ITNR;NO
20091112_RATP_SCD_0886;VGC;NO
20091112_RATP_SCD_0888;PV;NO
20091112_RATP_SCD_0890;TARF;NO
20091112_RATP_SCD_0892;AAPL;NO
20091112_RATP_SCD_0894;NVGO;NO
20091112_RATP_SCD_0895;AAPL;NO
20091112_RATP_SCD_0896;ETFC;NO
20091112_RATP_SCD_0897;RETT;NO
20091112_RATP_SCD_0898;NVGO;NO
20091112_RATP_SCD_0900;ETFC;NO
20091112_RATP_SCD_0901;NVGO;NO
20091112_RATP_SCD_0902;PV;NO
20091112_RATP_SCD_0903;VGC;NO
20091112_RATP_SCD_0904;ETFC;NO
20091112_RATP_SCD_0905;ITNR;NO
20091112_RATP_SCD_0911;AAPL;NO
20091112_RATP_SCD_0913;DDOC;NO
20091112_RATP_SCD_0914;PV;NO
20091112_RATP_SCD_0916;ETFC;NO
20091112_RATP_SCD_0918;ETFC;NO
20091112_RATP_SCD_0919;OBJT;NO
20091112_RATP_SCD_0920;PV;NO
20091112_RATP_SCD_0982;ETFC;NO
20091112_RATP_SCD_0983;ETFC;NO
20091112_RATP_SCD_0985;ETFC;NO
20091112_RATP_SCD_0986;OBJT;NO
20091112_RATP_SCD_0987;NVGO;NO
20091112_RATP_SCD_0988;AAPL;NO
20091112_RATP_SCD_0989;OBJT;NVGO
20091112_RATP_SCD_0990;OFTP;NO
20091112_RATP_SCD_1058;OBJT;NO
20091112_RATP_SCD_1061;RETT;NO
20091112_RATP_SCD_1062;NULL;NO
20091112_RATP_SCD_1063;ETFC;NO
20091112_RATP_SCD_1064;NULL;NO
20091112_RATP_SCD_1065;ETFC;NO
20091112_RATP_SCD_1066;NVGO;NO
20091112_RATP_SCD_1067;OFTP;ITNR
20091112_RATP_SCD_1068;OBJT;NO
20091112_RATP_SCD_1069;OBJT;NO
20091112_RATP_SCD_1070;ETFC;NO
20091112_RATP_SCD_1071;ETFC;NO
20091112_RATP_SCD_1072;ACDT;AAPL
20091112_RATP_SCD_1073;ETFC;NO
20091112_RATP_SCD_1074;ETFC;NO
20091112_RATP_SCD_1075;ITNR;NO
20091112_RATP_SCD_1086;ETFC;NO
20091112_RATP_SCD_1087;PV;NO
20091112_RATP_SCD_1088;ETFC;NO
20091112_RATP_SCD_1089;NVGO;NVGO
20091112_RATP_SCD_1090;OFTP;NO
20091112_RATP_SCD_1091;ETFC;HORR
20091112_RATP_SCD_1092;OBJT;NVGO
20091112_RATP_SCD_1093;JSTF;AAPL
20091112_RATP_SCD_1094;ETFC;NO
20091112_RATP_SCD_1095;OBJT;NO
20091112_RATP_SCD_1096;ETFC;NO
20091112_RATP_SCD_1097;ETFC;NO
20091112_RATP_SCD_1098;ITNR;NO
20091112_RATP_SCD_1099;ETFC;NO
20091112_RATP_SCD_1100;ETFC;NO
20091112_RATP_SCD_1101;AAPL;NO
20091112_RATP_SCD_1102;NULL;NO
20091112_RATP_SCD_1103;NVGO;NO
20091112_RATP_SCD_1104;HORR;ETFC
20091112_RATP_SCD_1105;HORR;ETFC
20091112_RATP_SCD_1111;ETFC;NO
20091112_RATP_SCD_1112;ETFC;NO
20091112_RATP_SCD_1113;OFTP;ITNR
20091112_RATP_SCD_1114;NVGO;NO
20091112_RATP_SCD_1115;ETFC;NO
20091112_RATP_SCD_1116;ITNR;NO
20091112_RATP_SCD_1117;ETFC;NO
20091112_RATP_SCD_1118;ITNR;NO
20091112_RATP_SCD_1119;OFTP;HORR
20091112_RATP_SCD_1120;ITNR;OFTP
20091112_RATP_SCD_1121;HORR;ITNR
20091112_RATP_SCD_1122;ETFC;NO
20091112_RATP_SCD_1123;RETT;NO
20091112_RATP_SCD_1124;OBJT;NO
20091112_RATP_SCD_1125;ETFC;NO
20091112_RATP_SCD_1126;PV;NVGO
20091112_RATP_SCD_1127;ETFC;NO
20091112_RATP_SCD_1128;AAPL;NO
20091112_RATP_SCD_1129;ITNR;HORR
20091112_RATP_SCD_1130;AAPL;NO
20091112_RATP_SCD_1131;OBJT;NO
20091112_RATP_SCD_1132;ETFC;NO
20091112_RATP_SCD_1133;ETFC;NO
20091112_RATP_SCD_1134;OFTP;TARF
20091112_RATP_SCD_1135;ETFC;NO
20091112_RATP_SCD_1136;ETFC;NO
20091112_RATP_SCD_1137;ETFC;NO
20091112_RATP_SCD_1138;NULL;NO
20091112_RATP_SCD_1139;ETFC;NO
20091112_RATP_SCD_1140;ETFC;NO
20091112_RATP_SCD_1141;NULL;NO
20091112_RATP_SCD_1142;AAPL;NO
20091112_RATP_SCD_1143;OBJT;NVGO
20091112_RATP_SCD_1144;HORR;ITNR
20091112_RATP_SCD_1145;ETFC;NO
20091112_RATP_SCD_1146;ETFC;NO
20091112_RATP_SCD_1147;ACDT;AAPL
20091112_RATP_SCD_1148;NULL;NO
20091112_RATP_SCD_1149;SVDO;PV
20091112_RATP_SCD_1150;CPAG;NO
20091112_RATP_SCD_1151;ETFC;NO
20091112_RATP_SCD_1152;ETFC;NO
20091112_RATP_SCD_1153;ETFC;HORR
20091112_RATP_SCD_1154;ETFC;NO
20091112_RATP_SCD_1156;ETFC;NO
20091112_RATP_SCD_1157;ETFC;NO
20091112_RATP_SCD_1158;OBJT;NVGO
20091112_RATP_SCD_1159;AAPL;AAPL
20091112_RATP_SCD_1160;ETFC;NO
20091112_RATP_SCD_1161;NULL;ETFC
20091112_RATP_SCD_1170;ITNR;OFTP
20091112_RATP_SCD_1171;ETFC;NO
20091112_RATP_SCD_1172;NVGO;AAPL
20091112_RATP_SCD_1173;OFTP;NO
20091112_RATP_SCD_1174;ETFC;NO
20091112_RATP_SCD_1175;ITNR;NO
20091112_RATP_SCD_1176;ITNR;AAPL
20091112_RATP_SCD_1177;OBJT;NO
20091112_RATP_SCD_1178;ETFC;NO
20091112_RATP_SCD_1179;ETFC;HORR
20091112_RATP_SCD_1180;NVGO;NO
20091112_RATP_SCD_1181;ETFC;NO
20091112_RATP_SCD_1182;OBJT;NO
20091112_RATP_SCD_1183;PV;NVGO
20091112_RATP_SCD_1184;ETFC;NO
20091112_RATP_SCD_1185;HORR;ITNR
20091112_RATP_SCD_1186;OBJT;NVGO
20091112_RATP_SCD_1187;ETFC;NO
20091112_RATP_SCD_1188;ETFC;NO
20091112_RATP_SCD_1189;ETFC;NO
20091112_RATP_SCD_1190;ETFC;NO
20091112_RATP_SCD_1191;TARF;NO
20091112_RATP_SCD_1192;ITNR;TARF
20091112_RATP_SCD_1193;ETFC;NO
20091112_RATP_SCD_1194;PV;SVDO
20091112_RATP_SCD_1195;ETFC;NO
20091112_RATP_SCD_1196;ETFC;NO
20091112_RATP_SCD_1197;HORR;NO
20091112_RATP_SCD_1198;ETFC;NO
20091112_RATP_SCD_1199;ETFC;NO
20091112_RATP_SCD_1200;CPAG;NO
20091112_RATP_SCD_1201;ITNR;NO
20091112_RATP_SCD_1202;AESP;ETFC
20091112_RATP_SCD_1203;ETFC;NO
20091112_RATP_SCD_1204;OFTP;TARF
20091112_RATP_SCD_1205;ITNR;NO
20091112_RATP_SCD_1206;ETFC;NO
20091112_RATP_SCD_1207;ETFC;NO
20091112_RATP_SCD_1208;ETFC;NO
20091112_RATP_SCD_1209;ETFC;ITNR
20091112_RATP_SCD_1210;ETFC;NO
20091112_RATP_SCD_1211;ETFC;NO
20091112_RATP_SCD_1212;ETFC;NO
20091112_RATP_SCD_1213;ETFC;NO
20091112_RATP_SCD_1215;OBJT;NO
20091112_RATP_SCD_1216;NULL;NO
20091112_RATP_SCD_1218;ETFC;NO
20091112_RATP_SCD_1219;ITNR;OFTP
20091112_RATP_SCD_1220;ETFC;NO
20091112_RATP_SCD_1221;ETFC;NO
20091112_RATP_SCD_1222;AAPL;NO
20091112_RATP_SCD_1223;ITNR;NO
20091112_RATP_SCD_1224;CPAG;NO
20091112_RATP_SCD_1225;ITNR;NO
20091112_RATP_SCD_1226;NVGO;NO
20091112_RATP_SCD_1227;ETFC;NO
20091112_RATP_SCD_1228;ITNR;HORR
20091112_RATP_SCD_1229;ETFC;NO
20091112_RATP_SCD_1230;ETFC;NO
20091112_RATP_SCD_1231;OFTP;NO
20091112_RATP_SCD_1232;ETFC;NO
20091112_RATP_SCD_1233;ETFC;NO
20091112_RATP_SCD_1234;ITNR;NO
20091112_RATP_SCD_1235;ETFC;NO
20091112_RATP_SCD_1236;OBJT;NVGO
20091112_RATP_SCD_1237;ETFC;NO
20091112_RATP_SCD_1238;OFTP;ITNR
20091112_RATP_SCD_1239;ETFC;NO
20091112_RATP_SCD_1240;HORR;NO
20091112_RATP_SCD_1241;HORR;NO
20091112_RATP_SCD_1242;ETFC;NO
20091112_RATP_SCD_1243;ETFC;NO
20091112_RATP_SCD_1244;ETFC;NO
20091112_RATP_SCD_1245;CPAG;NO
20091112_RATP_SCD_1246;NVGO;NO
20091112_RATP_SCD_1247;ETFC;NO
20091112_RATP_SCD_1248;ETFC;NO
20091112_RATP_SCD_1249;ETFC;NO
20091112_RATP_SCD_1250;ETFC;NO
20091112_RATP_SCD_1251;PV;NO
20091112_RATP_SCD_1252;OBJT;NO
20091112_RATP_SCD_1253;ETFC;NO
20091112_RATP_SCD_1254;ETFC;NO
20091112_RATP_SCD_1255;NULL;NO
20091112_RATP_SCD_1256;ITNR;NO
20091112_RATP_SCD_1257;HORR;NO
20091112_RATP_SCD_1258;ITNR;NO
20091112_RATP_SCD_1259;ETFC;NO
20091112_RATP_SCD_1260;ETFC;NO
20091112_RATP_SCD_1261;ETFC;NO
20091112_RATP_SCD_1262;ITNR;NO
20091112_RATP_SCD_1263;ETFC;NO
20091112_RATP_SCD_1264;ETFC;NO
20091112_RATP_SCD_1265;ITNR;NO
20091112_RATP_SCD_1266;OBJT;NO
20091112_RATP_SCD_1267;NULL;NO
20091112_RATP_SCD_1268;OBJT;NO
20091112_RATP_SCD_1269;ETFC;NO
20091112_RATP_SCD_1270;ETFC;NO
20091112_RATP_SCD_1271;ETFC;NO
20091112_RATP_SCD_1272;ETFC;NO
20091112_RATP_SCD_1273;ETFC;NO
20091112_RATP_SCD_1274;PV;NO
20091112_RATP_SCD_1275;PV;NO
20091112_RATP_SCD_1276;ETFC;NO
20091112_RATP_SCD_1277;ETFC;NO
20091112_RATP_SCD_1278;ETFC;NO
20091112_RATP_SCD_1279;ETFC;NO
20091112_RATP_SCD_1280;ETFC;NO
20091112_RATP_SCD_1281;OBJT;NO
20091112_RATP_SCD_1282;NVGO;NO
20091112_RATP_SCD_1283;ITNR;NO
20091112_RATP_SCD_1284;ETFC;NO
20091112_RATP_SCD_1285;ITNR;HORR
20091112_RATP_SCD_1287;JSTF;NVGO
20091112_RATP_SCD_1288;ETFC;NO
20091112_RATP_SCD_1289;OBJT;NO
20091112_RATP_SCD_1290;OBJT;NVGO
20091112_RATP_SCD_1291;ETFC;NO
20091112_RATP_SCD_1293;ETFC;NO
20091112_RATP_SCD_1294;OBJT;NO
20091112_RATP_SCD_1295;ETFC;NO
20091112_RATP_SCD_1296;OBJT;NO
20091112_RATP_SCD_1297;CPAG;NO
20091112_RATP_SCD_1298;ETFC;NO
20091112_RATP_SCD_1299;PV;NO
20091112_RATP_SCD_1300;ETFC;NO
20091112_RATP_SCD_1301;ITNR;NO
20091112_RATP_SCD_1302;ETFC;NO
20091112_RATP_SCD_1303;ETFC;NO
20091112_RATP_SCD_1304;ETFC;NVGO
20091112_RATP_SCD_1305;ITNR;NO
20091112_RATP_SCD_1306;ITNR;NO
20091112_RATP_SCD_1307;PV;NO
20091112_RATP_SCD_1308;ETFC;NO
20091112_RATP_SCD_1309;ETFC;NO
20091112_RATP_SCD_1310;RETT;ETFC
20091112_RATP_SCD_1311;TARF;NO
20091112_RATP_SCD_1312;ETFC;NO
20091112_RATP_SCD_1313;ETFC;NO
20091112_RATP_SCD_1314;ETFC;NO
20091112_RATP_SCD_1315;ETFC;NO
20091112_RATP_SCD_1316;NULL;NO
20091112_RATP_SCD_1317;ITNR;HORR
20091112_RATP_SCD_1318;ETFC;NO
20091112_RATP_SCD_1319;AAPL;OBJT
20091112_RATP_SCD_1320;ETFC;NO
20091112_RATP_SCD_1321;ITNR;HORR
20091112_RATP_SCD_1322;HORR;NO
20091112_RATP_SCD_1323;ETFC;NVGO
20091112_RATP_SCD_1324;ETFC;NO
20091112_RATP_SCD_1325;ITNR;NO
20091112_RATP_SCD_1326;ETFC;NO
20091112_RATP_SCD_1327;OBJT;NVGO
20091112_RATP_SCD_1328;ETFC;NO
20091112_RATP_SCD_1329;ETFC;NO
20091112_RATP_SCD_1330;AESP;NO
20091112_RATP_SCD_1331;ETFC;NO
20091112_RATP_SCD_1332;ETFC;NO
20091112_RATP_SCD_1333;ITNR;HORR
20091112_RATP_SCD_1334;ETFC;NO
20091112_RATP_SCD_1335;ETFC;NO
20091112_RATP_SCD_1336;ETFC;ITNR
20091112_RATP_SCD_1337;ETFC;HORR
20091112_RATP_SCD_1338;ETFC;NO
20091112_RATP_SCD_1339;ETFC;NO
20091112_RATP_SCD_1340;ETFC;NO
20091112_RATP_SCD_1341;ETFC;NO
20091112_RATP_SCD_1342;ETFC;ITNR
20091112_RATP_SCD_1343;OBJT;NVGO
20091112_RATP_SCD_1344;ETFC;NO
20091112_RATP_SCD_1345;OBJT;NO
20091112_RATP_SCD_1346;PV;SVDO
20091112_RATP_SCD_1347;AESP;NO
20091112_RATP_SCD_1348;ETFC;NO
20091112_RATP_SCD_1349;ITNR;NO
20091112_RATP_SCD_1350;ETFC;NO
20091112_RATP_SCD_1351;ETFC;NO
20091112_RATP_SCD_1352;ETFC;NO
20091112_RATP_SCD_1354;OBJT;NO
20101206_RATP_SCD_0002;OBJT;NO
20101206_RATP_SCD_0003;HORR;NO
20101206_RATP_SCD_0004;ETFC;NO
20101206_RATP_SCD_0005;ETFC;NO
20101206_RATP_SCD_0006;OBJT;NO
20101206_RATP_SCD_0007;HORR;ITNR
20101206_RATP_SCD_0008;HORR;NO
20101206_RATP_SCD_0009;ITNR;HORR
20101206_RATP_SCD_0010;NULL;NO
20101206_RATP_SCD_0011;ETFC;NO
20101206_RATP_SCD_0012;ETFC;NO
20101206_RATP_SCD_0013;OBJT;NO
20101206_RATP_SCD_0014;DDOC;HORR
20101206_RATP_SCD_0015;OBJT;NO
20101206_RATP_SCD_0016;OBJT;NO
20101206_RATP_SCD_0017;NULL;NO
20101206_RATP_SCD_0018;HORR;NO
20101206_RATP_SCD_0019;ETFC;NO
20101206_RATP_SCD_0020;OBJT;NO
20101206_RATP_SCD_0021;ACDT;NO
20101206_RATP_SCD_0022;AAPL;NO
20101206_RATP_SCD_0023;NULL;NO
20101206_RATP_SCD_0024;OBJT;NO
20101206_RATP_SCD_0025;OBJT;NO
20101206_RATP_SCD_0026;OBJT;NO
20101206_RATP_SCD_0027;HORR;NO
20101206_RATP_SCD_0028;NVGO;NO
20101206_RATP_SCD_0029;ITNR;NO
20101206_RATP_SCD_0030;OBJT;NO
20101206_RATP_SCD_0031;CPAG;OFTP
20101206_RATP_SCD_0032;HORR;NO
20101206_RATP_SCD_0033;OBJT;NO
20101206_RATP_SCD_0034;NVGO;NO
20101206_RATP_SCD_0035;ITNR;NO
20101206_RATP_SCD_0036;HORR;NO
20101206_RATP_SCD_0037;ETFC;NO
20101206_RATP_SCD_0038;ITNR;NO
20101206_RATP_SCD_0039;OFTP;HORR
20101206_RATP_SCD_0040;NVGO;AAPL
20101206_RATP_SCD_0041;NVGO;NO
20101206_RATP_SCD_0042;ITNR;NO
20101206_RATP_SCD_0043;CPAG;OFTP
20101206_RATP_SCD_0044;NULL;NO
20101206_RATP_SCD_0045;NULL;NO
20101206_RATP_SCD_0046;CPAG;NO
20101206_RATP_SCD_0047;ITNR;NO
20101206_RATP_SCD_0048;OBJT;NO
20101206_RATP_SCD_0049;OBJT;NO
20101206_RATP_SCD_0050;ITNR;NO
20101206_RATP_SCD_0051;NULL;NO
20101206_RATP_SCD_0052;OBJT;NO
20101206_RATP_SCD_0053;ITNR;ETFC
20101206_RATP_SCD_0054;ITNR;NO
20101206_RATP_SCD_0055;ITNR;NO
20101206_RATP_SCD_0056;OFTP;TARF
20101206_RATP_SCD_0057;OFTP;NO
20101206_RATP_SCD_0058;HORR;OFTP
20101206_RATP_SCD_0059;ITNR;NO
20101206_RATP_SCD_0060;OBJT;NO
20101206_RATP_SCD_0061;NVGO;NO
20101206_RATP_SCD_0062;PV;NO
20101206_RATP_SCD_0063;NVGO;NO
20101206_RATP_SCD_0064;ETFC;HORR
20101206_RATP_SCD_0065;NVGO;NO
20101206_RATP_SCD_0066;PV;NO
20101206_RATP_SCD_0067;ITNR;NO
20101206_RATP_SCD_0068;OFTP;NO
20101206_RATP_SCD_0069;HORR;ETFC
20101206_RATP_SCD_0070;NULL;NO
20101206_RATP_SCD_0071;OBJT;NO
20101206_RATP_SCD_0072;ACDT;NO
20101206_RATP_SCD_0073;OBJT;NO
20101206_RATP_SCD_0074;NULL;NO
20101206_RATP_SCD_0075;RETT;NVGO
20101206_RATP_SCD_0076;ITNR;NO
20101206_RATP_SCD_0077;ITNR;HORR
20101206_RATP_SCD_0078;OBJT;NO
20101206_RATP_SCD_0079;NVGO;NO
20101206_RATP_SCD_0080;ITNR;NO
20101206_RATP_SCD_0081;SVDO;NO
20101206_RATP_SCD_0082;OBJT;NO
20101206_RATP_SCD_0083;NVGO;NO
20101206_RATP_SCD_0084;OBJT;NO
20101206_RATP_SCD_0085;CPAG;NO
20101206_RATP_SCD_0086;PV;NO
20101206_RATP_SCD_0087;ITNR;NO
20101206_RATP_SCD_0088;NVGO;NO
20101206_RATP_SCD_0089;OBJT;NO
20101206_RATP_SCD_0090;OBJT;NO
20101206_RATP_SCD_0091;OFTP;NO
20101206_RATP_SCD_0092;OBJT;NO
20101206_RATP_SCD_0093;NVGO;NO
20101206_RATP_SCD_0094;NULL;NO
20101206_RATP_SCD_0095;ITNR;HORR
20101206_RATP_SCD_0096;OBJT;NO
20101206_RATP_SCD_0097;NULL;NO
20101206_RATP_SCD_0098;RETT;NO
20101206_RATP_SCD_0099;OBJT;NO
20101206_RATP_SCD_0100;PV;NO
20101206_RATP_SCD_0101;ACDT;NULL
20101206_RATP_SCD_0102;ITNR;OBJT
20101206_RATP_SCD_0103;OFTP;NO
20101206_RATP_SCD_0104;RGLM;NO
20101206_RATP_SCD_0105;ACDT;NULL
20101206_RATP_SCD_0106;AAPL;NO
20101206_RATP_SCD_0107;ETFC;NO
20101206_RATP_SCD_0108;OBJT;NO
20101206_RATP_SCD_0109;NVGO;NO
20101206_RATP_SCD_0110;OBJT;NO
20101206_RATP_SCD_0111;OFTP;NO
20101206_RATP_SCD_0112;OBJT;NO
20101206_RATP_SCD_0113;OBJT;NO
20101206_RATP_SCD_0114;OBJT;NO
20101206_RATP_SCD_0115;OBJT;OBJT
20101206_RATP_SCD_0116;HORR;TARF
20101206_RATP_SCD_0117;TARF;NO
20101206_RATP_SCD_0118;OBJT;NO
20101206_RATP_SCD_0119;TARF;NO
20101206_RATP_SCD_0120;NULL;NO
20101206_RATP_SCD_0121;OBJT;NVGO
20101206_RATP_SCD_0122;ITNR;NO
20101206_RATP_SCD_0123;OBJT;NO
20101206_RATP_SCD_0124;AAPL;NO
20101206_RATP_SCD_0125;NVGO;OBJT
20101206_RATP_SCD_0126;OBJT;NO
20101206_RATP_SCD_0127;OBJT;NO
20101206_RATP_SCD_0128;ITNR;HORR
20101206_RATP_SCD_0129;NVGO;NO
20101206_RATP_SCD_0130;CPAG;OBJT
20101206_RATP_SCD_0131;NVGO;ITNR
20101206_RATP_SCD_0132;OBJT;NO
20101206_RATP_SCD_0133;TARF;NO
20101206_RATP_SCD_0134;OBJT;NO
20101206_RATP_SCD_0135;ETFC;NO
20101206_RATP_SCD_0136;ITNR;NO
20101206_RATP_SCD_0137;OFTP;NVGO
20101206_RATP_SCD_0138;OBJT;NO
20101206_RATP_SCD_0139;NVGO;RETT
20101206_RATP_SCD_0140;OBJT;NO
20101206_RATP_SCD_0141;NVGO;OBJT
20101206_RATP_SCD_0142;JSTF;NO
20101206_RATP_SCD_0143;NULL;NO
20101206_RATP_SCD_0144;NVGO;NO
20101206_RATP_SCD_0145;OFTP;NO
20101206_RATP_SCD_0146;ITNR;NO
20101206_RATP_SCD_0147;ITNR;NO
20101206_RATP_SCD_0148;CPAG;AESP
20101206_RATP_SCD_0149;OBJT;NO
20101206_RATP_SCD_0150;ETFC;NO
20101206_RATP_SCD_0151;OBJT;NO
20101206_RATP_SCD_0152;OBJT;NVGO
20101206_RATP_SCD_0153;ITNR;NO
20101206_RATP_SCD_0154;ITNR;NO
20101206_RATP_SCD_0155;ITNR;NO
20101206_RATP_SCD_0156;ITNR;OBJT
20101206_RATP_SCD_0157;OBJT;NO
20101206_RATP_SCD_0158;ITNR;NO
20101206_RATP_SCD_0159;OBJT;NO
20101206_RATP_SCD_0160;ITNR;NO
20101206_RATP_SCD_0161;NVGO;NO
20101206_RATP_SCD_0162;JSTF;NO
20101206_RATP_SCD_0163;CPAG;NO
20101206_RATP_SCD_0164;PV;NO
20101206_RATP_SCD_0165;VGC;RETT
20101206_RATP_SCD_0166;ITNR;NO
20101206_RATP_SCD_0167;NVGO;NO
20101206_RATP_SCD_0168;OBJT;AGGV
20101206_RATP_SCD_0169;DDOC;SRTP
20101206_RATP_SCD_0170;NVGO;NO
20101206_RATP_SCD_0171;NVGO;NO
20101206_RATP_SCD_0172;ETFC;NO
20101206_RATP_SCD_0173;OBJT;NO
20101206_RATP_SCD_0174;ITNR;NO
20101206_RATP_SCD_0175;SVDO;RETT
20101206_RATP_SCD_0176;HORR;NO
20101206_RATP_SCD_0177;ITNR;NO
20101206_RATP_SCD_0178;ITNR;TARF
20101206_RATP_SCD_0179;OBJT;NO
20101206_RATP_SCD_0180;OBJT;NO
20101206_RATP_SCD_0181;ETFC;NO
20101206_RATP_SCD_0182;OBJT;NO
20101206_RATP_SCD_0183;ETFC;NO
20101206_RATP_SCD_0184;AAPL;NO
20101206_RATP_SCD_0185;ITNR;NO
20101206_RATP_SCD_0186;ITNR;NO
20101206_RATP_SCD_0187;OBJT;NO
20101206_RATP_SCD_0188;OBJT;NO
20101206_RATP_SCD_0189;ITNR;NO
20101206_RATP_SCD_0190;NVGO;JSTF
20101206_RATP_SCD_0191;ETFC;NO
20101206_RATP_SCD_0192;ACDT;NO
20101206_RATP_SCD_0193;AAPL;NO
20101206_RATP_SCD_0194;OBJT;NO
20101206_RATP_SCD_0195;OBJT;NO
20101206_RATP_SCD_0196;ITNR;NO
20101206_RATP_SCD_0197;OBJT;NO
20101206_RATP_SCD_0198;SVDO;RETT
20101206_RATP_SCD_0199;OBJT;NO
20101206_RATP_SCD_0200;ITNR;NO
20101206_RATP_SCD_0201;AAPL;NO
20101206_RATP_SCD_0202;TARF;NO
20101206_RATP_SCD_0203;NVGO;NO
20101206_RATP_SCD_0204;NULL;NO
20101206_RATP_SCD_0205;AAPL;NO
20101206_RATP_SCD_0206;OBJT;NO
20101206_RATP_SCD_0207;ITNR;NO
20101206_RATP_SCD_0208;OBJT;NO
20101206_RATP_SCD_0209;OBJT;NO
20101206_RATP_SCD_0210;OBJT;NO
20101206_RATP_SCD_0211;OBJT;NO
20101206_RATP_SCD_0212;ITNR;NO
20101206_RATP_SCD_0213;OBJT;NO
20101206_RATP_SCD_0214;OBJT;NO
20101206_RATP_SCD_0215;AAPL;NO
20101206_RATP_SCD_0216;JSTF;NO
20101206_RATP_SCD_0217;OBJT;NO
20101206_RATP_SCD_0218;ITNR;NO
20101206_RATP_SCD_0219;NVGO;OBJT
20101206_RATP_SCD_0220;JSTF;NO
20101206_RATP_SCD_0221;OBJT;NO
20101206_RATP_SCD_0222;ITNR;NO
20101206_RATP_SCD_0223;NVGO;RETT
20101206_RATP_SCD_0224;ITNR;NO
20101206_RATP_SCD_0225;ITNR;NO
20101206_RATP_SCD_0226;HORR;NO
20101206_RATP_SCD_0227;TARF;NO
20101206_RATP_SCD_0228;OBJT;NO
20101206_RATP_SCD_0229;NVGO;NO
20101206_RATP_SCD_0230;NULL;NO
20101206_RATP_SCD_0231;OBJT;NO
20101206_RATP_SCD_0232;AAPL;NO
20101206_RATP_SCD_0233;OBJT;NO
20101206_RATP_SCD_0234;RGLM;NO
20101206_RATP_SCD_0235;HORR;NO
20101206_RATP_SCD_0236;OBJT;NO
20101206_RATP_SCD_0237;ITNR;NO
20101206_RATP_SCD_0238;ITNR;NO
20101206_RATP_SCD_0239;NVGO;NO
20101206_RATP_SCD_0240;OBJT;NO
20101206_RATP_SCD_0241;SVDO;ACDT
20101206_RATP_SCD_0242;VGC;NO
20101206_RATP_SCD_0243;RGLM;NO
20101206_RATP_SCD_0244;RGLM;NVGO
20101206_RATP_SCD_0245;NVGO;NO
20101206_RATP_SCD_0246;OBJT;NO
20101206_RATP_SCD_0247;ITNR;NO
20101206_RATP_SCD_0248;PV;NO
20101206_RATP_SCD_0249;ITNR;HORR
20101206_RATP_SCD_0250;HORR;TARF
20101206_RATP_SCD_0251;OBJT;NO
20101206_RATP_SCD_0252;ITNR;NO
20101206_RATP_SCD_0253;ITNR;NO
20101206_RATP_SCD_0254;OBJT;NO
20101206_RATP_SCD_0255;OBJT;NO
20101206_RATP_SCD_0256;ITNR;NO
20101206_RATP_SCD_0257;AAPL;NO
20101206_RATP_SCD_0258;OBJT;NO
20101206_RATP_SCD_0259;OBJT;NO
20101206_RATP_SCD_0260;SVDO;RETT
20101206_RATP_SCD_0261;NVGO;NO
20101206_RATP_SCD_0262;RETT;NVGO
20101206_RATP_SCD_0263;CPAG;AAPL
20101206_RATP_SCD_0264;RETT;NVGO
20101206_RATP_SCD_0265;ETFC;NO
20101206_RATP_SCD_0266;ITNR;HORR
20101206_RATP_SCD_0267;HORR;NO
20101206_RATP_SCD_0268;NULL;NO
20101206_RATP_SCD_0269;ITNR;HORR
20101206_RATP_SCD_0270;OBJT;NO
20101206_RATP_SCD_0271;ITNR;NO
20101206_RATP_SCD_0272;ITNR;NO
20101206_RATP_SCD_0273;NVGO;NO
20101206_RATP_SCD_0274;TARF;OFTP
20101206_RATP_SCD_0275;SRTP;AAPL
20101206_RATP_SCD_0276;NVGO;NO
20101206_RATP_SCD_0277;OFTP;NVGO
20101206_RATP_SCD_0278;ITNR;NO
20101206_RATP_SCD_0279;ITNR;NO
20101206_RATP_SCD_0280;CPAG;NO
20101206_RATP_SCD_0281;RETT;NO
20101206_RATP_SCD_0282;PV;NO
20101206_RATP_SCD_0283;AAPL;NO
20101206_RATP_SCD_0284;AAPL;NO
20101206_RATP_SCD_0285;RGLM;NO
20101206_RATP_SCD_0286;ETFC;NO
20101206_RATP_SCD_0287;OBJT;NO
20101206_RATP_SCD_0288;ITNR;NO
20101206_RATP_SCD_0289;OBJT;NO
20101206_RATP_SCD_0290;ITNR;NO
20101206_RATP_SCD_0291;AAPL;NO
20101206_RATP_SCD_0292;AAPL;NO
20101206_RATP_SCD_0293;ACCS;NO
20101206_RATP_SCD_0294;ETFC;RETT
20101206_RATP_SCD_0295;OBJT;NO
20101206_RATP_SCD_0296;ITNR;NO
20101206_RATP_SCD_0297;ITNR;NO
20101206_RATP_SCD_0298;NVGO;NO
20101206_RATP_SCD_0299;NULL;NO
20101206_RATP_SCD_0300;OBJT;NO
20101206_RATP_SCD_0301;HORR;ITNR
20101206_RATP_SCD_0302;VGC;NO
20101206_RATP_SCD_0303;PV;NO
20101206_RATP_SCD_0304;AAPL;NO
20101206_RATP_SCD_0305;ITNR;NO
20101206_RATP_SCD_0306;AAPL;NO
20101206_RATP_SCD_0307;NULL;NO
20101206_RATP_SCD_0308;NVGO;NO
20101206_RATP_SCD_0309;ITNR;NO
20101206_RATP_SCD_0310;ITNR;NO
20101206_RATP_SCD_0311;ITNR;NO
20101206_RATP_SCD_0312;NULL;NO
20101206_RATP_SCD_0313;PV;NO
20101206_RATP_SCD_0314;NVGO;NO
20101206_RATP_SCD_0315;AAPL;NO
20101206_RATP_SCD_0316;ITNR;NO
20101206_RATP_SCD_0317;AAPL;NO
20101206_RATP_SCD_0318;ITNR;NO
20101206_RATP_SCD_0319;OBJT;NO
20101206_RATP_SCD_0320;ACDT;NO
20101206_RATP_SCD_0321;ACDT;SVDO
20101206_RATP_SCD_0322;VGC;NO
20101206_RATP_SCD_0323;ACDT;NO
20101206_RATP_SCD_0324;JSTF;NO
20101206_RATP_SCD_0325;NVGO;NO
20101206_RATP_SCD_0326;NVGO;NO
20101206_RATP_SCD_0327;VGC;NO
20101206_RATP_SCD_0328;OBJT;NO
20101206_RATP_SCD_0329;NVGO;NO
20101206_RATP_SCD_0330;ETFC;NO
20101206_RATP_SCD_0331;AAPL;NO
20101206_RATP_SCD_0332;NVGO;NO
20101206_RATP_SCD_0333;ITNR;NO
20101206_RATP_SCD_0334;SVDO;NVGO
20101206_RATP_SCD_0335;ITNR;TARF
20101206_RATP_SCD_0336;ITNR;NO
20101206_RATP_SCD_0337;ETFC;NO
20101206_RATP_SCD_0338;ITNR;NO
20101206_RATP_SCD_0339;NULL;NO
20101206_RATP_SCD_0340;NVGO;NO
20101206_RATP_SCD_0341;ITNR;NO
20101206_RATP_SCD_0342;NVGO;NO
20101206_RATP_SCD_0343;ETFC;NO
20101206_RATP_SCD_0344;OBJT;NO
20101206_RATP_SCD_0345;VGC;SVDO
20101206_RATP_SCD_0346;ITNR;HORR
20101206_RATP_SCD_0347;NVGO;NO
20101206_RATP_SCD_0348;ITNR;NO
20101206_RATP_SCD_0349;VGC;TARF
20101206_RATP_SCD_0350;AAPL;NO
20101206_RATP_SCD_0351;OBJT;NO
20101206_RATP_SCD_0352;NULL;NO
20101206_RATP_SCD_0353;AAPL;NO
20101206_RATP_SCD_0354;ITNR;NO
20101206_RATP_SCD_0355;ITNR;NO
20101206_RATP_SCD_0356;VGC;NO
20101206_RATP_SCD_0357;OBJT;NO
20101206_RATP_SCD_0358;OBJT;NO
20101206_RATP_SCD_0359;ITNR;NO
20101206_RATP_SCD_0360;JSTF;NO
20101206_RATP_SCD_0361;NVGO;NO
20101206_RATP_SCD_0362;NVGO;NO
20101206_RATP_SCD_0363;ITNR;NO
20101206_RATP_SCD_0364;ITNR;HORR
20101206_RATP_SCD_0365;OBJT;NO
20101206_RATP_SCD_0366;NULL;NO
20101206_RATP_SCD_0367;CPAG;AESP
20101206_RATP_SCD_0368;NULL;NO
20101206_RATP_SCD_0369;ETFC;NO
20101206_RATP_SCD_0370;AAPL;NO
20101206_RATP_SCD_0371;OBJT;NO
20101206_RATP_SCD_0372;HORR;NO
20101206_RATP_SCD_0373;NVGO;PV
20101206_RATP_SCD_0374;ITNR;HORR
20101206_RATP_SCD_0375;OBJT;NO
20101206_RATP_SCD_0376;ITNR;NO
20101206_RATP_SCD_0377;VGC;NO
20101206_RATP_SCD_0378;PV;NO
20101206_RATP_SCD_0379;OBJT;NO
20101206_RATP_SCD_0380;VGC;NO
20101206_RATP_SCD_0381;NVGO;NO
20101206_RATP_SCD_0382;OBJT;NO
20101206_RATP_SCD_0383;ITNR;NO
20101206_RATP_SCD_0384;OFTP;ITNR
20101206_RATP_SCD_0385;OBJT;NO
20101206_RATP_SCD_0386;NULL;NO
20101206_RATP_SCD_0387;OBJT;NO
20101206_RATP_SCD_0388;ITNR;NO
20101206_RATP_SCD_0389;OBJT;NVGO
20101206_RATP_SCD_0390;ITNR;NO
20101206_RATP_SCD_0391;OBJT;NO
20101206_RATP_SCD_0392;ETFC;NO
20101206_RATP_SCD_0393;ITNR;AAPL
20101206_RATP_SCD_0394;OFTP;ETFC
20101206_RATP_SCD_0395;NULL;NO
20101206_RATP_SCD_0396;ITNR;HORR
20101206_RATP_SCD_0397;ETFC;NO
20101206_RATP_SCD_0398;NULL;NO
20101206_RATP_SCD_0399;OBJT;NO
20101206_RATP_SCD_0400;OBJT;NO
20101206_RATP_SCD_0401;ITNR;NO
20101206_RATP_SCD_0402;RETT;NO
20101206_RATP_SCD_0403;PV;NO
20101206_RATP_SCD_0404;PV;NO
20101206_RATP_SCD_0405;ACDT;AAPL
20101206_RATP_SCD_0406;NVGO;OFTP
20101206_RATP_SCD_0407;OBJT;NO
20101206_RATP_SCD_0408;ITNR;NO
20101206_RATP_SCD_0409;OBJT;NO
20101206_RATP_SCD_0410;CPAG;AESP
20101206_RATP_SCD_0411;AESP;ACDT
20101206_RATP_SCD_0412;HORR;NO
20101206_RATP_SCD_0413;NVGO;NO
20101206_RATP_SCD_0414;VGC;NO
20101206_RATP_SCD_0415;HORR;HORR
20101206_RATP_SCD_0416;NULL;NO
20101206_RATP_SCD_0417;NVGO;RETT
20101206_RATP_SCD_0418;AAPL;NO
20101206_RATP_SCD_0419;NVGO;NO
20101206_RATP_SCD_0420;NVGO;NO
20101206_RATP_SCD_0421;ITNR;NO
20101206_RATP_SCD_0422;NVGO;RETT
20101206_RATP_SCD_0423;OBJT;NO
20101206_RATP_SCD_0424;NVGO;NO
20101206_RATP_SCD_0425;NVGO;NO
20101206_RATP_SCD_0426;TARF;NO
20101206_RATP_SCD_0427;OFTP;ITNR
20101206_RATP_SCD_0428;SVDO;NO
20101206_RATP_SCD_0429;OBJT;NO
20101206_RATP_SCD_0430;OBJT;NO
20101206_RATP_SCD_0431;DDOC;NO
20101206_RATP_SCD_0432;OBJT;NO
20101206_RATP_SCD_0433;ITNR;HORR
20101206_RATP_SCD_0434;NVGO;NO
20101206_RATP_SCD_0435;OBJT;NO
20101206_RATP_SCD_0436;NVGO;TARF
20101206_RATP_SCD_0437;OBJT;NO
20101206_RATP_SCD_0438;SRTP;AAPL
20101206_RATP_SCD_0439;ETFC;NO
20101206_RATP_SCD_0440;PV;NO
20101206_RATP_SCD_0441;ITNR;NO
20101206_RATP_SCD_0442;JSTF;NO
20101206_RATP_SCD_0443;PV;NO
20101206_RATP_SCD_0444;OBJT;NO
20101206_RATP_SCD_0445;ITNR;SRTP
20101206_RATP_SCD_0446;ITNR;NO
20101206_RATP_SCD_0447;OBJT;NO
20101206_RATP_SCD_0448;NULL;NO
20101206_RATP_SCD_0449;NULL;NO
20101206_RATP_SCD_0450;OBJT;NO
20101206_RATP_SCD_0451;NVGO;NO
20101206_RATP_SCD_0452;NULL;NO
20101206_RATP_SCD_0453;NULL;NO
20101206_RATP_SCD_0454;ITNR;NO
20101206_RATP_SCD_0455;PV;NO
20101206_RATP_SCD_0456;NVGO;SVDO
20101206_RATP_SCD_0457;NVGO;RETT
20101206_RATP_SCD_0458;NVGO;NO
20101206_RATP_SCD_0459;OBJT;NO
20101206_RATP_SCD_0460;HORR;NO
20101206_RATP_SCD_0461;OBJT;NO
20101206_RATP_SCD_0462;NVGO;NO
20101206_RATP_SCD_0463;OBJT;NO
20101206_RATP_SCD_0464;HORR;NO
20101206_RATP_SCD_0465;PV;NO
20101206_RATP_SCD_0466;SVDO;RETT
20101206_RATP_SCD_0467;ETFC;HORR
20101206_RATP_SCD_0468;ITNR;NO
20101206_RATP_SCD_0469;ITNR;NO
20101206_RATP_SCD_0470;OBJT;NO
20101206_RATP_SCD_0471;NVGO;RETT
20101206_RATP_SCD_0472;ITNR;NO
20101206_RATP_SCD_0473;TARF;NO
20101206_RATP_SCD_0474;RETT;NO
20101206_RATP_SCD_0475;OBJT;NO
20101206_RATP_SCD_0476;OBJT;NO
20101206_RATP_SCD_0477;ACCS;NO
20101206_RATP_SCD_0478;NVGO;NO
20101206_RATP_SCD_0479;RETT;NO
20101206_RATP_SCD_0480;TARF;NO
20101206_RATP_SCD_0481;PV;RETT
20101206_RATP_SCD_0482;NVGO;NO
20101206_RATP_SCD_0483;NVGO;NO
20101206_RATP_SCD_0484;OFTP;AESP
20101206_RATP_SCD_0485;NVGO;NO
20101206_RATP_SCD_0486;TARF;NO
20101206_RATP_SCD_0487;NVGO;NO
20101206_RATP_SCD_0488;PV;NO
20101206_RATP_SCD_0489;NULL;NO
20101206_RATP_SCD_0490;OBJT;NO
20101206_RATP_SCD_0491;OBJT;NO
20101206_RATP_SCD_0492;ETFC;NO
20101206_RATP_SCD_0493;ITNR;HORR
20101206_RATP_SCD_0494;JSTF;RETT
20101206_RATP_SCD_0495;NVGO;NO
20101206_RATP_SCD_0496;ITNR;HORR
20101206_RATP_SCD_0497;OBJT;NO
20101206_RATP_SCD_0498;NVGO;OBJT
20101206_RATP_SCD_0499;CPAG;NO
20101206_RATP_SCD_0500;NVGO;RETT
